teflon_2.csv

CH1,CH2,Start,Increment,
Volt,Volt,-6.40000e-03,1.00000e-04
4.80000e-01,-3.44000e+01,
1.60000e-01,-3.60000e+01,
4.80000e-01,-3.52000e+01,
2.40000e-01,-3.36000e+01,
5.60000e-01,-3.52000e+01,
1.60000e-01,-3.28000e+01,
4.80000e-01,-3.28000e+01,
8.00000e-02,-3.44000e+01,
4.80000e-01,-3.36000e+01,
8.00000e-02,-3.20000e+01,
4.80000e-01,-3.28000e+01,
8.00000e-02,-3.12000e+01,
4.80000e-01,-3.28000e+01,
8.00000e-02,-2.96000e+01,
4.80000e-01,-3.12000e+01,
8.00000e-02,-2.88000e+01,
8.00000e-02,-3.04000e+01,
4.80000e-01,-2.80000e+01,
8.00000e-02,-2.96000e+01,
4.00000e-01,-2.72000e+01,
0.00000e+00,-2.80000e+01,
4.00000e-01,-2.64000e+01,
4.00000e-01,-2.72000e+01,
-8.00000e-02,-2.56000e+01,
3.20000e-01,-2.64000e+01,
-8.00000e-02,-2.48000e+01,
1.60000e-01,-2.56000e+01,
-2.40000e-01,-2.32000e+01,
0.00000e+00,-2.48000e+01,
-4.80000e-01,-2.24000e+01,
-4.80000e-01,-2.32000e+01,
-8.00000e-02,-2.16000e+01,
-3.20000e-01,-2.24000e+01,
1.60000e-01,-2.00000e+01,
-8.00000e-02,-2.08000e+01,
3.20000e-01,-1.84000e+01,
4.00000e-01,-1.92000e+01,
-8.00000e-02,-1.76000e+01,
0.00000e+00,-1.84000e+01,
4.80000e-01,-1.60000e+01,
8.00000e-02,-1.76000e+01,
4.80000e-01,-1.52000e+01,
1.60000e-01,-1.60000e+01,
4.80000e-01,-1.36000e+01,
8.00000e-02,-1.52000e+01,
4.80000e-01,-1.28000e+01,
4.80000e-01,-1.36000e+01,
8.00000e-02,-1.12000e+01,
8.00000e-02,-1.28000e+01,
4.00000e-01,-1.04000e+01,
4.80000e-01,-1.04000e+01,
8.00000e-02,-8.00000e+00,
8.00000e-02,-9.60000e+00,
4.00000e-01,-7.20000e+00,
8.00000e-02,-8.00000e+00,
4.80000e-01,-5.60000e+00,
4.00000e-01,-6.40000e+00,
8.00000e-02,-4.00000e+00,
4.00000e-01,-5.60000e+00,
0.00000e+00,-3.20000e+00,
4.00000e-01,-4.00000e+00,
0.00000e+00,-1.60000e+00,
4.00000e-01,-3.20000e+00,
0.00000e+00,-8.00000e-01,
0.00000e+00,-8.00000e-01,
4.00000e-01,1.60000e+00,
4.80000e-01,8.00000e-01,
8.00000e-02,3.20000e+00,
4.80000e-01,1.60000e+00,
8.00000e-02,4.00000e+00,
1.60000e-01,3.20000e+00,
5.60000e-01,5.60000e+00,
2.40000e-01,4.00000e+00,
5.60000e-01,6.40000e+00,
5.60000e-01,5.60000e+00,
2.40000e-01,8.00000e+00,
5.60000e-01,7.20000e+00,
2.40000e-01,9.60000e+00,
5.60000e-01,8.80000e+00,
2.40000e-01,1.12000e+01,
3.20000e-01,1.04000e+01,
5.60000e-01,1.28000e+01,
5.60000e-01,1.12000e+01,
3.20000e-01,1.36000e+01,
2.40000e-01,1.28000e+01,
5.60000e-01,1.52000e+01,
5.60000e-01,1.36000e+01,
2.40000e-01,1.60000e+01,
5.60000e-01,1.52000e+01,
2.40000e-01,1.76000e+01,
2.40000e-01,1.60000e+01,
5.60000e-01,1.84000e+01,
2.40000e-01,1.76000e+01,
5.60000e-01,1.92000e+01,
4.80000e-01,1.84000e+01,
8.00000e-02,2.16000e+01,
4.80000e-01,2.00000e+01,
8.00000e-02,2.24000e+01,
4.80000e-01,2.16000e+01,
8.00000e-02,2.32000e+01,
8.00000e-02,2.24000e+01,
4.00000e-01,2.40000e+01,
4.00000e-01,2.32000e+01,
0.00000e+00,2.48000e+01,
4.80000e-01,2.40000e+01,
8.00000e-02,2.56000e+01,
8.00000e-02,2.48000e+01,
4.80000e-01,2.72000e+01,
4.80000e-01,2.56000e+01,
8.00000e-02,2.80000e+01,
8.00000e-02,2.64000e+01,
4.80000e-01,2.88000e+01,
4.80000e-01,2.72000e+01,
8.00000e-02,2.96000e+01,
8.00000e-02,2.96000e+01,
4.80000e-01,2.80000e+01,
8.00000e-02,2.96000e+01,
4.80000e-01,3.12000e+01,
4.00000e-01,3.04000e+01,
0.00000e+00,3.20000e+01,
4.80000e-01,3.12000e+01,
8.00000e-02,3.28000e+01,
8.00000e-02,3.28000e+01,
4.80000e-01,3.12000e+01,
4.00000e-01,3.20000e+01,
8.00000e-02,3.36000e+01,
1.60000e-01,3.36000e+01,
4.00000e-01,3.20000e+01,
8.00000e-02,3.28000e+01,
4.80000e-01,3.44000e+01,
4.00000e-01,3.44000e+01,
8.00000e-02,3.28000e+01,
8.00000e-02,3.28000e+01,
4.80000e-01,3.44000e+01,
8.00000e-02,3.36000e+01,
4.80000e-01,3.44000e+01,
4.00000e-01,3.36000e+01,
8.00000e-02,3.52000e+01,
8.00000e-02,3.36000e+01,
4.00000e-01,3.52000e+01,
4.80000e-01,3.36000e+01,
8.00000e-02,3.44000e+01,
8.00000e-02,3.36000e+01,
4.00000e-01,3.44000e+01,
4.00000e-01,3.44000e+01,
8.00000e-02,3.28000e+01,
4.80000e-01,3.28000e+01,
8.00000e-02,3.44000e+01,
1.60000e-01,3.36000e+01,
5.60000e-01,3.28000e+01,
1.60000e-01,3.36000e+01,
5.60000e-01,3.20000e+01,
2.40000e-01,3.28000e+01,
5.60000e-01,3.12000e+01,
5.60000e-01,3.28000e+01,
2.40000e-01,3.12000e+01,
5.60000e-01,3.20000e+01,
2.40000e-01,3.04000e+01,
5.60000e-01,3.12000e+01,
2.40000e-01,2.96000e+01,
4.80000e-01,3.04000e+01,
1.60000e-01,2.80000e+01,
1.60000e-01,2.96000e+01,
5.60000e-01,2.72000e+01,
2.40000e-01,2.88000e+01,
5.60000e-01,2.64000e+01,
1.60000e-01,2.80000e+01,
5.60000e-01,2.56000e+01,
2.40000e-01,2.72000e+01,
5.60000e-01,2.48000e+01,
4.80000e-01,2.56000e+01,
1.60000e-01,2.40000e+01,
4.80000e-01,2.48000e+01,
8.00000e-02,2.32000e+01,
4.00000e-01,2.40000e+01,
8.00000e-02,2.16000e+01,
4.80000e-01,2.32000e+01,
8.00000e-02,2.08000e+01,
8.00000e-02,2.24000e+01,
4.00000e-01,2.00000e+01,
4.00000e-01,2.08000e+01,
0.00000e+00,1.84000e+01,
4.00000e-01,1.92000e+01,
0.00000e+00,1.68000e+01,
4.00000e-01,1.84000e+01,
0.00000e+00,1.60000e+01,
4.00000e-01,1.68000e+01,
0.00000e+00,1.44000e+01,
0.00000e+00,1.60000e+01,
4.80000e-01,1.36000e+01,
8.00000e-02,1.44000e+01,
4.80000e-01,1.20000e+01,
4.00000e-01,1.36000e+01,
0.00000e+00,1.12000e+01,
0.00000e+00,1.20000e+01,
4.00000e-01,9.60000e+00,
4.80000e-01,1.12000e+01,
8.00000e-02,8.00000e+00,
4.00000e-01,8.80000e+00,
0.00000e+00,6.40000e+00,
8.00000e-02,8.00000e+00,
4.80000e-01,5.60000e+00,
4.00000e-01,6.40000e+00,
8.00000e-02,4.00000e+00,
4.00000e-01,5.60000e+00,
0.00000e+00,3.20000e+00,
4.00000e-01,4.00000e+00,
8.00000e-02,1.60000e+00,
4.00000e-01,2.40000e+00,
0.00000e+00,8.00000e-01,
3.20000e-01,1.60000e+00,
-1.60000e-01,-1.60000e+00,
8.00000e-02,-8.00000e-01,
-3.20000e-01,-3.20000e+00,
-8.00000e-02,-1.60000e+00,
-4.80000e-01,-4.00000e+00,
-3.20000e-01,-3.20000e+00,
2.40000e-01,-5.60000e+00,
0.00000e+00,-4.80000e+00,
4.00000e-01,-6.40000e+00,
4.00000e-01,-5.60000e+00,
8.00000e-02,-8.00000e+00,
4.80000e-01,-7.20000e+00,
8.00000e-02,-9.60000e+00,
4.80000e-01,-8.00000e+00,
8.00000e-02,-1.04000e+01,
2.40000e-01,-1.04000e+01,
5.60000e-01,-1.28000e+01,
2.40000e-01,-1.12000e+01,
6.40000e-01,-1.36000e+01,
5.60000e-01,-1.28000e+01,
2.40000e-01,-1.52000e+01,
3.20000e-01,-1.36000e+01,
5.60000e-01,-1.60000e+01,
5.60000e-01,-1.52000e+01,
2.40000e-01,-1.76000e+01,
5.60000e-01,-1.60000e+01,
2.40000e-01,-1.84000e+01,
2.40000e-01,-1.76000e+01,
5.60000e-01,-2.00000e+01,
2.40000e-01,-1.84000e+01,
6.40000e-01,-2.08000e+01,
2.40000e-01,-2.08000e+01,
5.60000e-01,-2.24000e+01,
2.40000e-01,-2.16000e+01,
6.40000e-01,-2.40000e+01,
5.60000e-01,-2.24000e+01,
2.40000e-01,-2.48000e+01,
5.60000e-01,-2.40000e+01,
8.00000e-02,-2.56000e+01,
2.40000e-01,-2.48000e+01,
5.60000e-01,-2.64000e+01,
5.60000e-01,-2.56000e+01,
1.60000e-01,-2.72000e+01,
4.80000e-01,-2.64000e+01,
1.60000e-01,-2.80000e+01,
4.80000e-01,-2.72000e+01,
1.60000e-01,-2.88000e+01,
8.00000e-02,-2.80000e+01,
4.00000e-01,-2.96000e+01,
0.00000e+00,-2.88000e+01,
4.00000e-01,-3.12000e+01,
2.40000e-01,-3.20000e+01,
0.00000e+00,-2.96000e+01,
0.00000e+00,-3.12000e+01,
4.00000e-01,-3.28000e+01,
0.00000e+00,-3.20000e+01,
4.00000e-01,-3.36000e+01,
4.00000e-01,-3.28000e+01,
0.00000e+00,-3.44000e+01,
4.00000e-01,-3.28000e+01,
0.00000e+00,-3.52000e+01,
4.80000e-01,-3.36000e+01,
0.00000e+00,-3.52000e+01,
8.00000e-02,-3.44000e+01,
4.00000e-01,-3.60000e+01,
4.00000e-01,-3.44000e+01,
8.00000e-02,-3.60000e+01,
0.00000e+00,-3.52000e+01,
4.00000e-01,-3.68000e+01,
8.00000e-02,-3.68000e+01,
4.80000e-01,-3.52000e+01,
4.80000e-01,-3.60000e+01,
8.00000e-02,-3.68000e+01,
4.00000e-01,-3.60000e+01,
0.00000e+00,-3.76000e+01,
4.80000e-01,-3.76000e+01,
8.00000e-02,-3.60000e+01,
4.80000e-01,-3.60000e+01,
8.00000e-02,-3.76000e+01,
0.00000e+00,-3.60000e+01,
4.80000e-01,-3.76000e+01,
8.00000e-02,-3.76000e+01,
4.80000e-01,-3.60000e+01,
4.00000e-01,-3.60000e+01,
0.00000e+00,-3.76000e+01,
4.00000e-01,-3.60000e+01,
8.00000e-02,-3.76000e+01,
8.00000e-02,-3.76000e+01,
4.00000e-01,-3.60000e+01,
0.00000e+00,-3.76000e+01,
4.80000e-01,-3.60000e+01,
8.00000e-02,-3.68000e+01,
4.00000e-01,-3.52000e+01,
8.00000e-02,-3.52000e+01,
4.00000e-01,-3.68000e+01,
0.00000e+00,-3.60000e+01,
4.80000e-01,-3.44000e+01,
4.80000e-01,-3.44000e+01,
8.00000e-02,-3.60000e+01,
1.60000e-01,-3.52000e+01,
4.80000e-01,-3.36000e+01,
2.40000e-01,-3.52000e+01,
4.80000e-01,-3.28000e+01,
4.80000e-01,-3.28000e+01,
8.00000e-02,-3.44000e+01,
4.80000e-01,-3.36000e+01,
1.60000e-01,-3.20000e+01,
1.60000e-01,-3.28000e+01,
4.80000e-01,-3.12000e+01,
4.80000e-01,-3.20000e+01,
1.60000e-01,-3.04000e+01,
2.40000e-01,-3.12000e+01,
5.60000e-01,-2.96000e+01,
1.60000e-01,-3.04000e+01,
4.80000e-01,-2.80000e+01,
4.80000e-01,-2.96000e+01,
8.00000e-02,-2.72000e+01,
4.00000e-01,-2.80000e+01,
8.00000e-02,-2.64000e+01,
8.00000e-02,-2.72000e+01,
4.00000e-01,-2.56000e+01,
4.00000e-01,-2.64000e+01,
0.00000e+00,-2.48000e+01,
2.40000e-01,-2.56000e+01,
-1.60000e-01,-2.32000e+01,
8.00000e-02,-2.48000e+01,
-4.80000e-01,-2.24000e+01,
-2.40000e-01,-2.32000e+01,
-5.60000e-01,-2.16000e+01,
-4.80000e-01,-2.24000e+01,
8.00000e-02,-2.00000e+01,
-1.60000e-01,-2.08000e+01,
2.40000e-01,-1.84000e+01,
-8.00000e-02,-1.92000e+01,
4.00000e-01,-1.76000e+01,
4.00000e-01,-1.84000e+01,
8.00000e-02,-1.60000e+01,
8.00000e-02,-1.76000e+01,
4.80000e-01,-1.52000e+01,
4.00000e-01,-1.60000e+01,
8.00000e-02,-1.36000e+01,
4.00000e-01,-1.52000e+01,
0.00000e+00,-1.28000e+01,
8.00000e-02,-1.36000e+01,
4.80000e-01,-1.12000e+01,
4.00000e-01,-1.20000e+01,
0.00000e+00,-9.60000e+00,
8.00000e-02,-1.04000e+01,
4.00000e-01,-8.00000e+00,
0.00000e+00,-9.60000e+00,
4.00000e-01,-6.40000e+00,
8.00000e-02,-8.00000e+00,
4.00000e-01,-5.60000e+00,
4.00000e-01,-6.40000e+00,
0.00000e+00,-4.00000e+00,
8.00000e-02,-5.60000e+00,
4.00000e-01,-3.20000e+00,
4.80000e-01,-4.00000e+00,
8.00000e-02,-1.60000e+00,
4.00000e-01,-3.20000e+00,
8.00000e-02,-8.00000e-01,
8.00000e-02,-1.60000e+00,
4.00000e-01,1.60000e+00,
8.00000e-02,8.00000e-01,
4.00000e-01,3.20000e+00,
0.00000e+00,1.60000e+00,
4.00000e-01,4.00000e+00,
0.00000e+00,3.20000e+00,
4.00000e-01,5.60000e+00,
4.00000e-01,4.00000e+00,
8.00000e-02,6.40000e+00,
4.00000e-01,5.60000e+00,
8.00000e-02,8.00000e+00,
4.00000e-01,6.40000e+00,
8.00000e-02,8.80000e+00,
8.00000e-02,8.00000e+00,
4.80000e-01,1.12000e+01,
4.80000e-01,1.04000e+01,
8.00000e-02,1.20000e+01,
1.60000e-01,1.12000e+01,
4.80000e-01,1.36000e+01,
4.80000e-01,1.28000e+01,
8.00000e-02,1.52000e+01,
1.60000e-01,1.36000e+01,
4.80000e-01,1.60000e+01,
2.40000e-01,1.52000e+01,
5.60000e-01,1.76000e+01,
2.40000e-01,1.60000e+01,
4.80000e-01,1.84000e+01,
2.40000e-01,1.76000e+01,
4.80000e-01,1.92000e+01,
1.60000e-01,1.84000e+01,
5.60000e-01,2.16000e+01,
4.80000e-01,2.00000e+01,
1.60000e-01,2.24000e+01,
4.80000e-01,2.16000e+01,
2.40000e-01,2.32000e+01,
2.40000e-01,2.24000e+01,
4.80000e-01,2.40000e+01,
2.40000e-01,2.32000e+01,
4.80000e-01,2.48000e+01,
4.80000e-01,2.40000e+01,
1.60000e-01,2.56000e+01,
5.60000e-01,2.48000e+01,
8.00000e-02,2.64000e+01,
4.80000e-01,2.56000e+01,
1.60000e-01,2.80000e+01,
8.00000e-02,2.64000e+01,
4.80000e-01,2.88000e+01,
4.80000e-01,2.72000e+01,
8.00000e-02,2.96000e+01,
4.80000e-01,2.96000e+01,
0.00000e+00,2.80000e+01,
0.00000e+00,3.12000e+01,
4.80000e-01,2.88000e+01,
4.80000e-01,3.04000e+01,
8.00000e-02,3.20000e+01,
8.00000e-02,3.12000e+01,
4.80000e-01,3.28000e+01,
8.00000e-02,3.28000e+01,
4.80000e-01,3.12000e+01,
4.80000e-01,3.20000e+01,
8.00000e-02,3.36000e+01,
4.80000e-01,3.20000e+01,
8.00000e-02,3.36000e+01,
8.00000e-02,3.28000e+01,
4.80000e-01,3.44000e+01,
8.00000e-02,3.28000e+01,
4.80000e-01,3.44000e+01,
8.00000e-02,3.28000e+01,
4.00000e-01,3.44000e+01,
8.00000e-02,3.36000e+01,
4.80000e-01,3.44000e+01,
4.00000e-01,3.44000e+01,
8.00000e-02,3.36000e+01,
8.00000e-02,3.36000e+01,
4.80000e-01,3.52000e+01,
8.00000e-02,3.36000e+01,
4.80000e-01,3.44000e+01,
8.00000e-02,3.44000e+01,
4.80000e-01,3.36000e+01,
4.80000e-01,3.44000e+01,
8.00000e-02,3.28000e+01,
8.00000e-02,3.44000e+01,
4.80000e-01,3.28000e+01,
4.00000e-01,3.28000e+01,
0.00000e+00,3.36000e+01,
4.00000e-01,3.36000e+01,
0.00000e+00,3.20000e+01,
0.00000e+00,3.28000e+01,
4.00000e-01,3.12000e+01,
4.00000e-01,3.12000e+01,
0.00000e+00,3.28000e+01,
4.00000e-01,3.20000e+01,
0.00000e+00,3.04000e+01,
8.00000e-02,3.12000e+01,
4.00000e-01,2.88000e+01,
8.00000e-02,3.04000e+01,
4.80000e-01,2.80000e+01,
4.80000e-01,2.96000e+01,
8.00000e-02,2.72000e+01,
2.40000e-01,2.88000e+01,
4.80000e-01,2.64000e+01,
2.40000e-01,2.80000e+01,
5.60000e-01,2.56000e+01,
5.60000e-01,2.72000e+01,
2.40000e-01,2.48000e+01,
2.40000e-01,2.64000e+01,
5.60000e-01,2.40000e+01,
2.40000e-01,2.48000e+01,
5.60000e-01,2.32000e+01,
5.60000e-01,2.40000e+01,
1.60000e-01,2.24000e+01,
1.60000e-01,2.32000e+01,
5.60000e-01,2.08000e+01,
5.60000e-01,2.24000e+01,
2.40000e-01,2.00000e+01,
5.60000e-01,1.84000e+01,
8.00000e-02,2.08000e+01,
2.40000e-01,1.92000e+01,
5.60000e-01,1.68000e+01,
4.80000e-01,1.84000e+01,
8.00000e-02,1.60000e+01,
4.80000e-01,1.68000e+01,
8.00000e-02,1.52000e+01,
4.80000e-01,1.60000e+01,
8.00000e-02,1.36000e+01,
4.00000e-01,1.44000e+01,
8.00000e-02,1.20000e+01,
8.00000e-02,1.36000e+01,
4.80000e-01,1.12000e+01,
8.00000e-02,1.20000e+01,
4.80000e-01,1.04000e+01,
4.00000e-01,1.12000e+01,
0.00000e+00,8.00000e+00,
0.00000e+00,8.80000e+00,
4.00000e-01,7.20000e+00,
4.00000e-01,8.00000e+00,
0.00000e+00,5.60000e+00,
4.00000e-01,6.40000e+00,
0.00000e+00,4.00000e+00,
0.00000e+00,5.60000e+00,
4.00000e-01,3.20000e+00,
4.00000e-01,4.00000e+00,
0.00000e+00,1.60000e+00,
2.40000e-01,2.40000e+00,
-8.00000e-02,8.00000e-01,
1.60000e-01,1.60000e+00,
-2.40000e-01,-1.60000e+00,
0.00000e+00,-8.00000e-01,
-4.80000e-01,-3.20000e+00,
-4.80000e-01,-1.60000e+00,
-8.00000e-02,-4.00000e+00,
-2.40000e-01,-3.20000e+00,
2.40000e-01,-5.60000e+00,
-8.00000e-02,-4.80000e+00,
2.40000e-01,-6.40000e+00,
0.00000e+00,-5.60000e+00,
4.00000e-01,-8.00000e+00,
8.00000e-02,-7.20000e+00,
4.00000e-01,-9.60000e+00,
4.00000e-01,-8.00000e+00,
0.00000e+00,-1.04000e+01,
4.80000e-01,-9.60000e+00,
8.00000e-02,-1.28000e+01,
4.80000e-01,-1.12000e+01,
8.00000e-02,-1.36000e+01,
4.80000e-01,-1.28000e+01,
8.00000e-02,-1.52000e+01,
4.80000e-01,-1.36000e+01,
8.00000e-02,-1.60000e+01,
8.00000e-02,-1.52000e+01,
4.80000e-01,-1.76000e+01,
4.80000e-01,-1.68000e+01,
8.00000e-02,-1.84000e+01,
4.80000e-01,-1.76000e+01,
1.60000e-01,-2.00000e+01,
1.60000e-01,-1.84000e+01,
5.60000e-01,-2.08000e+01,
2.40000e-01,-2.08000e+01,
5.60000e-01,-2.24000e+01,
4.80000e-01,-2.16000e+01,
1.60000e-01,-2.40000e+01,
5.60000e-01,-2.24000e+01,
2.40000e-01,-2.48000e+01,
5.60000e-01,-2.32000e+01,
2.40000e-01,-2.56000e+01,
5.60000e-01,-2.48000e+01,
2.40000e-01,-2.64000e+01,
5.60000e-01,-2.56000e+01,
2.40000e-01,-2.72000e+01,
5.60000e-01,-2.64000e+01,
2.40000e-01,-2.80000e+01,
2.40000e-01,-2.72000e+01,
5.60000e-01,-2.88000e+01,
5.60000e-01,-2.80000e+01,
2.40000e-01,-2.96000e+01,
4.80000e-01,-2.88000e+01,
1.60000e-01,-3.04000e+01,
8.00000e-02,-2.96000e+01,
5.60000e-01,-3.20000e+01,
4.80000e-01,-3.12000e+01,
1.60000e-01,-3.28000e+01,
4.80000e-01,-3.20000e+01,
8.00000e-02,-3.36000e+01,
8.00000e-02,-3.28000e+01,
4.00000e-01,-3.44000e+01,
8.00000e-02,-3.28000e+01,
4.80000e-01,-3.52000e+01,
4.80000e-01,-3.36000e+01,
8.00000e-02,-3.52000e+01,
4.00000e-01,-3.44000e+01,
0.00000e+00,-3.60000e+01,
4.80000e-01,-3.44000e+01,
0.00000e+00,-3.60000e+01,
0.00000e+00,-3.52000e+01,
4.00000e-01,-3.68000e+01,
4.00000e-01,-3.68000e+01,
0.00000e+00,-3.52000e+01,
4.00000e-01,-3.60000e+01,
0.00000e+00,-3.68000e+01,
8.00000e-02,-3.60000e+01,
4.80000e-01,-3.76000e+01,
8.00000e-02,-3.76000e+01,
4.80000e-01,-3.60000e+01,
5.60000e-01,-3.60000e+01,
8.00000e-02,-3.76000e+01,
8.00000e-02,-3.60000e+01,
4.80000e-01,-3.76000e+01,
4.00000e-01,-3.76000e+01,
0.00000e+00,-3.60000e+01,
0.00000e+00,-3.60000e+01,
4.00000e-01,-3.76000e+01,
8.00000e-02,-3.60000e+01,
4.80000e-01,-3.76000e+01,
4.80000e-01,-3.76000e+01,
8.00000e-02,-3.60000e+01,
8.00000e-02,-3.76000e+01,
5.60000e-01,-3.60000e+01,
4.80000e-01,-3.68000e+01,
1.60000e-01,-3.52000e+01,
4.80000e-01,-3.52000e+01,
8.00000e-02,-3.68000e+01,
8.00000e-02,-3.60000e+01,
4.80000e-01,-3.44000e+01,
8.00000e-02,-3.44000e+01,
4.80000e-01,-3.60000e+01,
4.00000e-01,-3.52000e+01,
8.00000e-02,-3.36000e+01,
8.00000e-02,-3.36000e+01,
4.80000e-01,-3.52000e+01,
8.00000e-02,-3.44000e+01,
4.80000e-01,-3.28000e+01,
8.00000e-02,-3.36000e+01,
4.80000e-01,-3.20000e+01,
8.00000e-02,-3.28000e+01,
5.60000e-01,-3.12000e+01,
4.80000e-01,-3.28000e+01,
8.00000e-02,-2.96000e+01,
2.40000e-01,-3.12000e+01,
5.60000e-01,-2.88000e+01,
2.40000e-01,-3.04000e+01,
5.60000e-01,-2.80000e+01,
1.60000e-01,-2.96000e+01,
5.60000e-01,-2.72000e+01,
2.40000e-01,-2.80000e+01,
5.60000e-01,-2.64000e+01,
4.80000e-01,-2.72000e+01,
8.00000e-02,-2.56000e+01,
4.00000e-01,-2.64000e+01,
8.00000e-02,-2.48000e+01,
3.20000e-01,-2.56000e+01,
-1.60000e-01,-2.32000e+01,
1.60000e-01,-2.48000e+01,
-3.20000e-01,-2.24000e+01,
-8.00000e-02,-2.40000e+01,
-4.80000e-01,-2.16000e+01,
-3.20000e-01,-2.24000e+01,
2.40000e-01,-2.00000e+01,
0.00000e+00,-2.08000e+01,
3.20000e-01,-1.84000e+01,
0.00000e+00,-1.92000e+01,
4.80000e-01,-1.76000e+01,
4.00000e-01,-1.84000e+01,
0.00000e+00,-1.60000e+01,
4.00000e-01,-1.76000e+01,
0.00000e+00,-1.52000e+01,
0.00000e+00,-1.60000e+01,
4.00000e-01,-1.36000e+01,
4.00000e-01,-1.52000e+01,
0.00000e+00,-1.28000e+01,
0.00000e+00,-1.36000e+01,
4.00000e-01,-1.12000e+01,
4.00000e-01,-1.28000e+01,
0.00000e+00,-9.60000e+00,
0.00000e+00,-1.04000e+01,
4.00000e-01,-8.00000e+00,
4.80000e-01,-8.80000e+00,
0.00000e+00,-7.20000e+00,
0.00000e+00,-8.00000e+00,
4.00000e-01,-5.60000e+00,
8.00000e-02,-6.40000e+00,
4.80000e-01,-4.00000e+00,
1.60000e-01,-5.60000e+00,
4.80000e-01,-3.20000e+00,
4.80000e-01,-4.00000e+00,
8.00000e-02,-1.60000e+00,
4.80000e-01,-3.20000e+00,
8.00000e-02,-8.00000e-01,
4.80000e-01,-1.60000e+00,
8.00000e-02,1.60000e+00,
1.60000e-01,8.00000e-01,
4.80000e-01,2.40000e+00,
4.00000e-01,1.60000e+00,
8.00000e-02,4.00000e+00,
4.80000e-01,3.20000e+00,
8.00000e-02,5.60000e+00,
4.80000e-01,4.00000e+00,
8.00000e-02,6.40000e+00,
5.60000e-01,5.60000e+00,
8.00000e-02,8.00000e+00,
4.80000e-01,7.20000e+00,
8.00000e-02,8.80000e+00,
8.00000e-02,8.00000e+00,
4.80000e-01,1.12000e+01,
4.80000e-01,1.04000e+01,
8.00000e-02,1.20000e+01,
8.00000e-02,1.12000e+01,
4.80000e-01,1.36000e+01,
8.00000e-02,1.28000e+01,
4.80000e-01,1.52000e+01,
8.00000e-02,1.36000e+01,
4.80000e-01,1.60000e+01,
8.00000e-02,1.52000e+01,
4.80000e-01,1.76000e+01,
4.80000e-01,1.60000e+01,
2.40000e-01,1.84000e+01,
4.80000e-01,1.76000e+01,
1.60000e-01,1.92000e+01,
2.40000e-01,1.84000e+01,
5.60000e-01,2.16000e+01,
4.80000e-01,2.00000e+01,
2.40000e-01,2.24000e+01,
4.80000e-01,2.16000e+01,
8.00000e-02,2.32000e+01,
2.40000e-01,2.24000e+01,
5.60000e-01,2.40000e+01,
2.40000e-01,2.32000e+01,
4.80000e-01,2.48000e+01,
1.60000e-01,2.40000e+01,
5.60000e-01,2.56000e+01,
2.40000e-01,2.48000e+01,
5.60000e-01,2.72000e+01,
5.60000e-01,2.56000e+01,
2.40000e-01,2.80000e+01,
1.60000e-01,2.64000e+01,
5.60000e-01,2.88000e+01,
2.40000e-01,2.72000e+01,
5.60000e-01,2.96000e+01,
5.60000e-01,2.96000e+01,
1.60000e-01,2.80000e+01,
4.80000e-01,3.12000e+01,
2.40000e-01,2.88000e+01,
8.00000e-02,3.04000e+01,
4.80000e-01,3.20000e+01,
1.60000e-01,3.04000e+01,
4.80000e-01,3.28000e+01,
8.00000e-02,3.28000e+01,
4.80000e-01,3.12000e+01,
8.00000e-02,3.20000e+01,
4.00000e-01,3.36000e+01,
4.80000e-01,3.20000e+01,
0.00000e+00,3.36000e+01,
4.00000e-01,3.28000e+01,
8.00000e-02,3.44000e+01,
8.00000e-02,3.28000e+01,
4.00000e-01,3.44000e+01,
8.00000e-02,3.44000e+01,
4.80000e-01,3.28000e+01,
8.00000e-02,3.36000e+01,
4.80000e-01,3.44000e+01,
8.00000e-02,3.36000e+01,
4.00000e-01,3.52000e+01,
8.00000e-02,3.36000e+01,
4.80000e-01,3.52000e+01,
8.00000e-02,3.36000e+01,
4.80000e-01,3.44000e+01,
4.00000e-01,3.36000e+01,
8.00000e-02,3.44000e+01,
4.00000e-01,3.44000e+01,
8.00000e-02,3.28000e+01,
4.00000e-01,3.28000e+01,
8.00000e-02,3.44000e+01,
8.00000e-02,3.28000e+01,
4.80000e-01,3.36000e+01,
8.00000e-02,3.36000e+01,
4.80000e-01,3.20000e+01,
4.00000e-01,3.28000e+01,
0.00000e+00,3.12000e+01,
4.80000e-01,3.12000e+01,
8.00000e-02,3.28000e+01,
8.00000e-02,3.20000e+01,
4.00000e-01,3.04000e+01,
8.00000e-02,3.12000e+01,
4.00000e-01,2.96000e+01,
8.00000e-02,3.04000e+01,
4.80000e-01,2.80000e+01,
8.00000e-02,2.96000e+01,
4.80000e-01,2.72000e+01,
